COPASI R Connector • CoRC
…
CoRC runs it’s own version of the COPASI backend which it will download for your platform during installation.

Usage

library(CoRC)
loadExamples(1)
#> [[1]]
#> # A COPASI model reference:
#> Model name: "The Brusselator"
#> Number of compartments: 1
#> Number of species: 6
#> Number of reactions: 4

runTimeCourse()$result
#> # A tibble: 201 × 3
#>     Time     X     Y
#>    <dbl> <dbl> <dbl>
#>  1   0   3     3    
#>  2   0.5 3.41  0.817
#>  3   1   1.90  1.28 
#>  4   1.5 0.876 1.87 
#>  5   2   0.346 2.37 
#>  6   2.5 0.183 2.66 
#>  7   3   0.147 2.86 
#>  8   3.5 0.141 3.05 
#>  9   4   0.141 3.23 
#> 10   4.5 0.142 3.41 
#> # … with 191 more rows
…
