CoRC Introduction • CoRC
…
CoRC data

Data generated by CoRC is returned as common R structures such as
lists, data frames and matrices. Data frames are wrapped in an
equivalent structure called a tibble
which behaves identical in most circumstances but gives a reasonable
overview when printing.

timecourse$result
#> # A tibble: 10,001 × 4
#>     Time `G-alpha` activePLC  Calcium
#>    <dbl>     <dbl>     <dbl>    <dbl>
#>  1  0       0.02      0.01   0.01    
#>  2  0.01    0.0227    0.0102 0.000320
#>  3  0.02    0.0255    0.0103 0.000359
#>  4  0.03    0.0284    0.0106 0.000400
#>  5  0.04    0.0314    0.0108 0.000442
#>  6  0.05    0.0344    0.0111 0.000486
#>  7  0.06    0.0376    0.0114 0.000530
#>  8  0.07    0.0408    0.0118 0.000576
#>  9  0.08    0.0441    0.0122 0.000624
#> 10  0.09    0.0475    0.0126 0.000672
#> # … with 9,991 more rows
…
