Handling Model Entities • CoRC
…
Initial Setup

library(tidyverse)
library(CoRC)
loadExamples(2)
#> [[1]]
#> # A copasi model reference:
#> Model name: "Bacterial chemotaxis model"
#> @ref is set to: <pointer: 0x7fd33bff64f0>
#> Number of compartments: 1
#> Number of species: 21
#> Number of reactions: 14
getSpecies()
#> # A tibble: 21 x 8
#>       name compartment       type initial.concentration initial.number
#>      <chr>       <chr>      <chr>                 <dbl>          <dbl>
#>  1    CheA compartment  reactions                  5.30       4468.429
#>  2   CheAp compartment  reactions                  0.00          0.000
#>  3    CheB compartment  reactions                  0.28        236.068
#>  4   CheBp compartment  reactions                  0.00          0.000
#>  5    CheY compartment  reactions                  9.70       8178.069
#>  6   CheYp compartment  reactions                  0.00          0.000
#>  7    CheR compartment      fixed                  0.16        134.896
#>  8 Tactive compartment assignment                  0.00          0.000
#>  9    CheZ compartment  reactions                  3.80       3203.779
#> 10      T0 compartment  reactions                  5.30       4468.429
#> # ... with 11 more rows, and 3 more variables: concentration <dbl>,
#> #   number <dbl>, key <chr>
…
