Model Building • CoRC
…
subs_quant <- newGlobalQuantity("substrate concentration", initial_value = 10)
subs_value <- quantity(subs_quant, reference = "Value")

newSpecies("a", type = "assignment", expression = subs_value)
#> Warning: No compartment exists. Created default compartment.
#> [1] "a{compartment}"
newReaction("a = b", fun = "Reversible Michaelis-Menten")
#> [1] "(a = b)"

runTC(1000)$result
#> # A tibble: 101 × 3
#>     Time     b     a
#>    <dbl> <dbl> <dbl>
#>  1     0  1       10
#>  2    10  1.75    10
#>  3    20  2.40    10
#>  4    30  2.97    10
#>  5    40  3.48    10
#>  6    50  3.94    10
#>  7    60  4.35    10
#>  8    70  4.72    10
#>  9    80  5.06    10
#> 10    90  5.37    10
#> # … with 91 more rows

newGlobalQuantity(
  "reaction rate",
  type = "assignment",
  expression = reaction("a = b", reference = "Flux")
)
#> [1] "Values[reaction rate]"

runTimeCourse(1000)$result
#> # A tibble: 101 × 4
#>     Time     b     a `Values[reaction rate]`
#>    <dbl> <dbl> <dbl>                   <dbl>
#>  1     0  1       10                  0.0811
#>  2    10  1.75    10                  0.0696
#>  3    20  2.40    10                  0.0608
#>  4    30  2.97    10                  0.0538
#>  5    40  3.48    10                  0.0480
#>  6    50  3.94    10                  0.0432
#>  7    60  4.35    10                  0.0391
#>  8    70  4.72    10                  0.0356
#>  9    80  5.06    10                  0.0326
#> 10    90  5.37    10                  0.0299
#> # … with 91 more rows
…
