Group Meeting
…
saveCPS("data/brusselator_1_new.cps", overwrite = TRUE)

The new copasi file has a rearranged parameter set:

/Applications/COPASI/CopasiUI.app/Contents/MacOS/CopasiUI examples/brusselator_1_new.cps &

Run a time-course simulation and get a data frame ready for plotting.

tc <- runTimeCourse(100, 0.5)
tc

## # A tibble: 201 x 3
##     Time         X         Y
##    <dbl>     <dbl>     <dbl>
##  1   0.0 6.0000000 6.0000000
##  2   0.5 7.1663460 0.8223072
##  3   1.0 4.3447366 1.3147013
##  4   1.5 2.3548327 2.1512453
##  5   2.0 0.7800599 3.4654148
##  6   2.5 0.2140282 4.3269438
##  7   3.0 0.1634015 4.7885537
##  8   3.5 0.1619935 5.2089608
##  9   4.0 0.1638363 5.6256874
## 10   4.5 0.1659994 6.0410719
## # ... with 191 more rows
…
